{
	"services": [
		{
			"name": "Поиграть в комп (1 час)",
			"image": "play.png",
			"description": "Никто не помешает тебе скатать каточку в любимую игру (можно использовать услугу только в свободное время)",
			"price": 2
		},
		{
			"name": "Пропуск зарядки",
			"image": "sleep.png",
			"description": "Освобождение от утренней зарядки. Данная услуга вступает в силу на следующий день после покупки. За двукратную плату можно воспользоваться услугой в день покупки.",
			"price": 3
		},
		{
			"name": "Имя на день",
			"image": "king.png",
			"description": "Вы выбираете себе псевдоним (состоящий из одного слова), и весь педагогический состав в течении дня будет использовать исключительно его при обращении к вам.",
			"price": 4
		},
		{
			"name": "Телефон на ночь",
			"image": "phone.png",
			"description": "Ваше устройство будет в вашем полном до следующего сбора смартфонов, не включая день покупки услуги.",
			"price": 6
		},
		{
			"name": "Доставка еды",
			"image": "food.png",
			"description": "Можете заказать еду с доставкой из любого заведения за свои деньги.",
			"price": 8
		},
		{
			"name": "Ноутбук на ночь",
			"image": "laptop.png",
			"description": "Ваше устройство будет в вашем полном распоряжении до следующей раздачи смартфонов.",
			"price": 8
		},
		{
			"name": "Завтрак в постель",
			"image": "breakfast.png",
			"description": "Вам в номер принесут завтрак из столовой по вашему заказу.",
			"price": 10
		},
		{
			"name": "Фильм с вожатыми",
			"image": "movie.png",
			"description": "После отбоя в комнате боссов, непосредственно в их компании, вы можете посмотреть фильм/мультфильм на ваш выбор.",
			"price": 12
		}
	],
	"goods": [
		{
			"name": "Значок",
			"image": "значки.png",
			"description": "",
			"price": 10
		},
		{
			"name": "Бумажная ручка",
			"image": "ручка бумажная.png",
			"description": "",
			"price": 12
		},
		{
			"name": "Объемная наклейка Predator",
			"image": "наклейка предатор.png",
			"description": "",
			"price": 15
		},
		{
			"name": "Ручка",
			"image": "ручка коди.png",
			"description": "",
			"price": 18
		},
		{
			"name": "Закладка",
			"image": "закладка коди.png",
			"description": "",
			"price": 20
		},
		{
			"name": "Бюджетный Mystery Box",
			"image": "mystery.png",
			"description": "В этой загадочной коробке не менее 15 предметов",
			"price": "20 + выкуп"
		},
		{
			"name": "Носки",
			"image": "носки.png",
			"description": "",
			"price": "20 <strike>24</strike>"
		},
		{
			"name": "Браслет",
			"image": "браслет коди.png",
			"description": "",
			"price": 25
		},
		{
			"name": "Набор стикеров",
			"image": "набор наклеек коди.png",
			"description": "",
			"price": 30
		},
		{
			"name": "Поп сокет",
			"image": "поп сокет коди.png",
			"description": "",
			"price": 35
		},
		{
			"name": "Брелок",
			"image": "брелок коди.png",
			"description": "",
			"price": 35
		},
		{
			"name": "Маска",
			"image": "маска коди.png",
			"description": "",
			"price": 40
		},
		{
			"name": "Скетчбук",
			"image": "скетчбук коди.png",
			"description": "",
			"price": 60
		},
		{
			"name": "Коврик для мышки",
			"image": "коврик для мышки коди.png",
			"description": "",
			"price": 70
		},
		{
			"name": "Нормис Mystery Box",
			"image": "mystery.png",
			"description": "В этой загадочной коробке не менее 25 предметов",
			"price": "100 + выкуп"
		},
		{
			"name": "Браслет-флешка (60 Гб)",
			"image": "браслет флешка коди.png",
			"description": "",
			"price": 120
		},
		{
			"name": "Кружка",
			"image": "кружка коди.png",
			"description": "",
			"price": 150
		},
		{
			"name": "Элитный Mystery Box",
			"image": "mystery.png",
			"description": "В этой загадочной коробке не менее 50 предмета",
			"price": "250 + выкуп"
		},
		{
			"name": "Игра Крокодил",
			"image": "крокодил коди.png",
			"description": "",
			"price": 300
		}
	]
}
